mmlib4j/models/preprocessing/Zscore.class
mmlib4j/targets/BoundingBoxMatching.class
mmlib4j/features/MserFeature.class
mmlib4j/models/transfer/Tansig.class
mmlib4j/files/DataFile.class
Test.class
mmlib4j/files/GroupByNumber.class
mmlib4j/models/transfer/Transfer.class
mmlib4j/targets/BoundBox.class
mmlib4j/models/transfer/Relu.class
mmlib4j/models/preprocessing/Scaler.class
mmlib4j/models/transfer/TransferFactory.class
mmlib4j/models/transfer/Sigmoid.class
mmlib4j/models/ann/Layer.class
mmlib4j/debug/DebugTask.class
mmlib4j/models/datastruct/Matrix.class
mmlib4j/files/DataWriter.class
mmlib4j/features/NormalFeature.class
mmlib4j/files/DataLoader.class
mmlib4j/targets/Target.class
mmlib4j/primitives/Primitives.class
mmlib4j/debug/DebugNone.class
mmlib4j/features/Feature.class
mmlib4j/models/preprocessing/MinMax.class
mmlib4j/models/ann/ShallowRegression.class
mmlib4j/debug/DebugTime.class
mmlib4j/features/MeanVolumeFeatureR$1.class
mmlib4j/models/transfer/Identity.class
mmlib4j/models/Models.class
mmlib4j/features/ExtractFeatures.class
mmlib4j/models/regression/LinearRegression.class
mmlib4j/models/ann/MultiLayerPerceptron.class
mmlib4j/debug/Debug.class
mmlib4j/features/FeatureBody.class
mmlib4j/files/DataGroup.class
mmlib4j/features/MeanVolumeFeatureR.class
